{
    "db": "presidents_cup.sqlite3",
    "events":[
        {"event_id": "2bf4e1014a4acdcb78d485dc0164913c9add7b62",
         "name": "Team Round 1",
         "url": "https://team.presidentscup.us",
         "take": 1000
        },
        {"event_id": "fab611d6d97a0fb06028a4a3c94c4bc061c59419",
         "name": "Team Round 2",
         "url": "https://team.presidentscup.us",
         "take": 100
        },
        {"event_id": "6e8a187696e74948a897da7cbbba14be155afb6a",
         "name": "Solo Round 1",
         "url": "https://solo.presidentscup.us",
         "take": 1000
        }
    ],
    "teams": {
        "XXX-Player-123": "FooBarBaz"
    },
    "slack": {
        "token": "xoxb-XXX-optional",
        "channel": "#XXX-optional",
        "watch": {
            "XXX-Player-123": "@U1234ABCD"
        }
    },
    "twitter":{
        "consumer_key": "XXX-optional",
        "consumer_secret": "XXX-optional",
        "access_token": "XXX-optional",
        "access_token_secret": "XXX-optional"
    }
}
